^C:\USERS\MMAGONOVA\DOCUMENTS\VISUAL STUDIO 2015\PROJECTS\PROJECT4\PROJECT4\SOURCE.CPP
C:\USERS\MMAGONOVA\DOCUMENTS\VISUAL STUDIO 2015\PROJECTS\PROJECT4\PROJECT4\DEBUG\VC140.PDB
C:\USERS\MMAGONOVA\DOCUMENTS\VISUAL STUDIO 2015\PROJECTS\PROJECT4\PROJECT4\DEBUG\VC140.IDB
