^D:\DO\PROJECTS\IT_CLASS\MATHS\CONSOLEAPPLICATION1\DEBUG\HOMEWORK1.OBJ|D:\DO\PROJECTS\IT_CLASS\MATHS\CONSOLEAPPLICATION1\DEBUG\HOMEWORK2.OBJ
D:\DO\PROJECTS\IT_CLASS\MATHS\DEBUG\CONSOLEAPPLICATION1.ILK
D:\DO\PROJECTS\IT_CLASS\MATHS\DEBUG\CONSOLEAPPLICATION1.EXE
D:\DO\PROJECTS\IT_CLASS\MATHS\DEBUG\CONSOLEAPPLICATION1.PDB
