^D:\DO\PROJECTS\IT_CLASS\CONSOLEAPPLICATION1\CONSOLEAPPLICATION1\HOMEWORK1.CPP
/c /ZI /nologo /W3 /WX- /sdl /Od /Oy- /D WIN32 /D _DEBUG /D _CONSOLE /D _UNICODE /D UNICODE /Gm /EHsc /RTC1 /MDd /GS /fp:precise /Zc:wchar_t /Zc:forScope /Zc:inline /Fo"DEBUG\\" /Fd"DEBUG\VC140.PDB" /Gd /TP /analyze- D:\DO\PROJECTS\IT_CLASS\CONSOLEAPPLICATION1\CONSOLEAPPLICATION1\HOMEWORK1.CPP
^D:\DO\PROJECTS\IT_CLASS\CONSOLEAPPLICATION1\CONSOLEAPPLICATION1\HOMEWORK2.CPP
/c /ZI /nologo /W3 /WX- /sdl /Od /Oy- /D WIN32 /D _DEBUG /D _CONSOLE /D _UNICODE /D UNICODE /Gm /EHsc /RTC1 /MDd /GS /fp:precise /Zc:wchar_t /Zc:forScope /Zc:inline /Fo"DEBUG\\" /Fd"DEBUG\VC140.PDB" /Gd /TP /analyze- D:\DO\PROJECTS\IT_CLASS\CONSOLEAPPLICATION1\CONSOLEAPPLICATION1\HOMEWORK2.CPP
^D:\DO\PROJECTS\IT_CLASS\MATHS\CONSOLEAPPLICATION1\HOMEWORK1.CPP
/c /ZI /nologo /W3 /WX- /sdl /Od /Oy- /D WIN32 /D _DEBUG /D _CONSOLE /D _UNICODE /D UNICODE /Gm /EHsc /RTC1 /MDd /GS /fp:precise /Zc:wchar_t /Zc:forScope /Zc:inline /Fo"DEBUG\\" /Fd"DEBUG\VC140.PDB" /Gd /TP /analyze- D:\DO\PROJECTS\IT_CLASS\MATHS\CONSOLEAPPLICATION1\HOMEWORK1.CPP
^D:\DO\PROJECTS\IT_CLASS\MATHS\CONSOLEAPPLICATION1\HOMEWORK2.CPP
/c /ZI /nologo /W3 /WX- /sdl /Od /Oy- /D WIN32 /D _DEBUG /D _CONSOLE /D _UNICODE /D UNICODE /Gm /EHsc /RTC1 /MDd /GS /fp:precise /Zc:wchar_t /Zc:forScope /Zc:inline /Fo"DEBUG\\" /Fd"DEBUG\VC140.PDB" /Gd /TP /analyze- D:\DO\PROJECTS\IT_CLASS\MATHS\CONSOLEAPPLICATION1\HOMEWORK2.CPP
^D:\DO\PROJECTS\IT_CLASS\MATHS\CONSOLEAPPLICATION1\HOMEWORK3.CPP
/c /ZI /nologo /W3 /WX- /sdl /Od /Oy- /D WIN32 /D _DEBUG /D _CONSOLE /D _UNICODE /D UNICODE /Gm /EHsc /RTC1 /MDd /GS /fp:precise /Zc:wchar_t /Zc:forScope /Zc:inline /Fo"DEBUG\\" /Fd"DEBUG\VC140.PDB" /Gd /TP /analyze- D:\DO\PROJECTS\IT_CLASS\MATHS\CONSOLEAPPLICATION1\HOMEWORK3.CPP
^D:\DO\PROJECTS\IT_CLASS\MATHS\CONSOLEAPPLICATION1\SOURCE.CPP
/c /ZI /nologo /W3 /WX- /sdl /Od /Oy- /D WIN32 /D _DEBUG /D _CONSOLE /D _UNICODE /D UNICODE /Gm /EHsc /RTC1 /MDd /GS /fp:precise /Zc:wchar_t /Zc:forScope /Zc:inline /Fo"DEBUG\\" /Fd"DEBUG\VC140.PDB" /Gd /TP /analyze- D:\DO\PROJECTS\IT_CLASS\MATHS\CONSOLEAPPLICATION1\SOURCE.CPP
